…
A glance at the missing entries shows 38% missing Athlete\_club, along
with 8% missing age related fields. Athlete\_club isn’t too important
for my intial data exploratory analysis and so can be excluded.

    data %>%
      group_by(Year_of_event) %>%
      summarise(missing = sum(is.na(Athlete_year_of_birth)| Athlete_year_of_birth == ""),
                perc_missing = mean(is.na(Athlete_year_of_birth) | Athlete_year_of_birth == "")) %>%
      arrange(desc(missing))

    ## # A tibble: 146 × 3
    ##    Year_of_event missing perc_missing
    ##            <int>   <int>        <dbl>
    ##  1          2019   45910       0.0627
    ##  2          2016   44904       0.0831
    ##  3          2018   44500       0.0673
    ##  4          2015   42929       0.0893
    ##  5          2017   42185       0.0698
    ##  6          2022   40771       0.0865
    ##  7          2014   37275       0.0893
    ##  8          2013   29125       0.0835
    ##  9          2012   23161       0.0775
    ## 10          2021   22947       0.0611
    ## # ℹ 136 more rows
…
    data_clean %<>%
             mutate(athlete_age = as.numeric(Year_of_event) - as.numeric(Athlete_year_of_birth))

    data_clean %>%
      mutate(location = if_else(race_location == 'GER', 'GER','RoW')) %>%
      count(location, Athlete_age_category) %>%
      pivot_wider(names_from = location, values_from = n) 

    ## # A tibble: 38 × 3
    ##    Athlete_age_category   GER    RoW
    ##    <chr>                <int>  <int>
    ##  1 ""                   19436 557944
    ##  2 "M20"                18373      2
    ##  3 "M30"                22756      1
    ##  4 "M35"                34278 943583
    ##  5 "M40"                45725 995695
    ##  6 "M45"                51554 845161
    ##  7 "M50"                45546 572535
    ##  8 "M55"                28041 318352
    ##  9 "M60"                14379 151518
    ## 10 "M65"                 6369  59417
    ## # ℹ 28 more rows
…
